<svg xmlns="http://www.w3.org/2000/svg"
  xmlns:xlink="http://www.w3.org/1999/xlink" width="100" height="100"
  viewBox="0 0 100 100">
  <g transform="translate(50 50) scale(0.69 0.69) rotate(180) translate(-50 -50)"
    style="fill:#8500CC">
    <svg fill="#8500CC" xmlns="http://www.w3.org/2000/svg"
      xmlns:xlink="http://www.w3.org/1999/xlink" version="1.1" x="0px" y="0px"
      viewBox="0 0 100 100" enable-background="new 0 0 100 100"
      xml:space="preserve">
      <g>
        <!--right tape hole -->
        <path
          d="M65.4,53.2c0-1.4-1.2-2.6-2.6-2.6s-2.6,1.2-2.6,2.6s1.2,2.6,2.6,2.6S65.4,54.7,65.4,53.2z">
        </path>
        <!-- left interior hole -->
        <path
          d="M37.3,55.6c1.5,0,2.6-1.2,2.6-2.6c0-1.4-1.2-2.6-2.6-2.6s-2.6,1.2-2.6,2.6C34.6,54.5,35.8,55.6,37.3,55.6z">
        </path>
        <!-- surrounding background -->
        <path
          d="M5,95h90V5H5V95z M24.7,33.5c0-1.4,1.1-2.5,2.5-2.5h45.6c1.4,0,2.5,1.1,2.5,2.5v32.9c0,1.4-1.1,2.5-2.5,2.5H27.2   c-1.4,0-2.5-1.1-2.5-2.5V33.5z">
        </path> 
        <!-- interior background -->
        <path
          d="M27.3,67.7h45.4c0.7,0,1.3-0.6,1.3-1.3V33.6c0-0.7-0.6-1.3-1.3-1.3H27.3c-0.7,0-1.3,0.6-1.3,1.3v32.8   C26,67.1,26.6,67.7,27.3,67.7z M37.3,43.7c5.2,0,9.5,4.2,9.5,9.5c0,3.3-1.7,6.2-4.2,7.9h14.8c-2.6-1.7-4.2-4.6-4.2-7.9   c0-5.2,4.2-9.5,9.5-9.5s9.5,4.2,9.5,9.5c0,5.2-4.2,9.5-9.5,9.5H37.3c-5.2,0-9.5-4.2-9.5-9.5C27.9,47.9,32.1,43.7,37.3,43.7z">
        </path>
        <!-- left reel -->
        <path
          d="M37.3,61.1c4.4,0,7.9-3.5,7.9-7.9s-3.5-7.9-7.9-7.9s-7.9,3.5-7.9,7.9S33,61.1,37.3,61.1z M31,54.7l1.4-1   c-0.1-0.2-0.1-0.4-0.1-0.6c0-0.2,0.1-0.4,0.1-0.6l-1.4-1c-0.2-0.1-0.2-0.3-0.1-0.4l1.3-2.2c0.1-0.1,0.3-0.2,0.4-0.1l1.6,0.6   c0.3-0.3,0.7-0.4,1.2-0.6l0.2-1.6c0-0.2,0.1-0.3,0.3-0.3h2.6c0.2,0,0.3,0.1,0.3,0.3l0.2,1.7c0.4,0.1,0.9,0.4,1.2,0.6l1.6-0.7   c0.1-0.1,0.3,0,0.4,0.2l1.3,2.2c0.1,0.2,0.1,0.4-0.1,0.4l-1.4,1c0.1,0.2,0.1,0.4,0.1,0.6c0,0.2-0.1,0.4-0.1,0.6l1.4,1   c0.1,0.1,0.1,0.3,0.1,0.4l-1.3,2.2c-0.1,0.1-0.3,0.2-0.4,0.1l-1.6-0.7c-0.3,0.3-0.7,0.4-1.2,0.6l-0.2,1.7c0,0.2-0.1,0.3-0.3,0.3   h-2.6c-0.2,0-0.3-0.1-0.3-0.3l-0.2-1.7c-0.4-0.1-0.9-0.4-1.2-0.6l-1.6,0.7c-0.1,0.1-0.3,0-0.4-0.2l-1.3-2.2   C30.8,54.9,30.9,54.8,31,54.7z">
        </path>
        <!-- right reel -->
        <path
          d="M70.6,53.2c0-4.4-3.5-7.9-7.9-7.9s-7.9,3.5-7.9,7.9s3.5,7.9,7.9,7.9S70.6,57.5,70.6,53.2z M61.1,59.3l-0.2-1.7   c-0.4-0.1-0.9-0.4-1.2-0.6l-1.6,0.7c-0.1,0.1-0.3,0-0.4-0.2l-1.3-2.2c-0.1-0.2-0.1-0.4,0.1-0.4l1.4-1c-0.1-0.2-0.1-0.4-0.1-0.6   c0-0.2,0.1-0.4,0.1-0.6l-1.4-1c-0.2-0.1-0.2-0.3-0.1-0.4l1.3-2.2c0.1-0.1,0.3-0.2,0.4-0.1l1.6,0.6c0.3-0.3,0.7-0.4,1.2-0.6l0.2-1.6   c0-0.2,0.1-0.3,0.3-0.3h2.6c0.2,0,0.3,0.1,0.3,0.3l0.2,1.7c0.4,0.1,0.9,0.4,1.2,0.6l1.6-0.7c0.1-0.1,0.3,0,0.4,0.2l1.3,2.2   c0.1,0.2,0.1,0.4-0.1,0.4l-1.4,1c0.1,0.2,0.1,0.4,0.1,0.6c0,0.2-0.1,0.4-0.1,0.6l1.4,1c0.1,0.1,0.1,0.3,0.1,0.4l-1.3,2.2   c-0.1,0.1-0.3,0.2-0.4,0.1L65.8,57c-0.3,0.3-0.7,0.4-1.2,0.6l-0.2,1.7c0,0.2-0.1,0.3-0.3,0.3h-2.6C61.2,59.6,61.1,59.5,61.1,59.3z">
        </path>
      </g>
    </svg>
  </g>
</svg>

